<?xml version="1.0" encoding="UTF-8"?>
<robot generator="Robot 3.1.2 (Python 3.8.0 on win32)" generated="20200806 15:00:29.241" rpa="false">
<suite id="s1" name="Atsistemashome" source="C:\at\workspaces\PycharmProjects\robotmobile\TestSuite\FunctionalTests\atsistemashome.robot">
<test id="s1-t1" name="Home Validate Test">
<kw name="Open Browser" library="SeleniumLibrary">
<doc>Opens a new browser instance to the optional ``url``.</doc>
<arguments>
<arg>https://www.atsistemas.com/es chrome</arg>
</arguments>
<msg timestamp="20200806 15:00:29.854" level="INFO">Opening browser 'firefox' to base url 'https://www.atsistemas.com/es chrome'.</msg>
<msg timestamp="20200806 15:00:29.859" level="INFO">Firefox driver log is always forced to to: C:\at\workspaces\PycharmProjects\robotmobile\results\geckodriver-1.log</msg>
<kw name="Capture Page Screenshot" library="SeleniumLibrary">
<doc>Takes a screenshot of the current page and embeds it into a log file.</doc>
<msg timestamp="20200806 15:00:30.485" level="INFO">Cannot capture screenshot because no browser is open.</msg>
<status status="PASS" starttime="20200806 15:00:30.484" endtime="20200806 15:00:30.485"></status>
</kw>
<msg timestamp="20200806 15:00:30.497" level="FAIL">SessionNotCreatedException: Message: Unable to find a matching set of capabilities
</msg>
<status status="FAIL" starttime="20200806 15:00:29.854" endtime="20200806 15:00:30.498"></status>
</kw>
<doc>Test for validate atSistemas home page</doc>
<tags>
<tag>functional</tag>
</tags>
<status status="FAIL" starttime="20200806 15:00:29.852" endtime="20200806 15:00:30.499" critical="yes">SessionNotCreatedException: Message: Unable to find a matching set of capabilities
</status>
</test>
<status status="FAIL" starttime="20200806 15:00:29.245" endtime="20200806 15:00:30.504"></status>
</suite>
<statistics>
<total>
<stat pass="0" fail="1">Critical Tests</stat>
<stat pass="0" fail="1">All Tests</stat>
</total>
<tag>
<stat pass="0" fail="1">functional</stat>
</tag>
<suite>
<stat pass="0" fail="1" id="s1" name="Atsistemashome">Atsistemashome</stat>
</suite>
</statistics>
<errors>
</errors>
</robot>
